<?xml version="1.0" encoding="UTF-8" standalone="no"?>
<!DOCTYPE svg PUBLIC "-//W3C//DTD SVG 1.1//EN" "http://www.w3.org/Graphics/SVG/1.1/DTD/svg11.dtd">
<svg width="100%" height="100%" viewBox="0 0 70 70" version="1.1" xmlns="http://www.w3.org/2000/svg" xmlns:xlink="http://www.w3.org/1999/xlink" xml:space="preserve" xmlns:serif="http://www.serif.com/" style="fill-rule:evenodd;clip-rule:evenodd;stroke-linejoin:round;stroke-miterlimit:1.41421;">
    <path d="M49.142,35L35,49.142L20.858,35L35,20.858L35,35L49.142,35Z" style="fill:rgb(29,229,233);"/>
    <g transform="matrix(1,0,0,1,2,-2)">
        <path d="M49.142,35L35,35L35,20.858L49.142,35Z" style="fill:rgb(29,229,233);"/>
    </g>
    <path d="M35,5L35,13.667C23.226,13.667 13.667,23.226 13.667,35C13.667,46.774 23.226,56.333 35,56.333C46.774,56.333 56.333,46.774 56.333,35L65,35C65,36.471 64.892,37.943 64.675,39.402L59.853,40.709C59.216,43.481 58.12,46.126 56.61,48.537L59.096,52.871C57.339,55.241 55.241,57.339 52.871,59.096L48.537,56.61C46.126,58.12 43.481,59.216 40.709,59.853L39.402,64.675C36.483,65.108 33.517,65.108 30.598,64.675L29.291,59.853C26.519,59.216 23.874,58.12 21.463,56.61L17.129,59.096C14.759,57.339 12.661,55.241 10.904,52.871L13.39,48.537C11.88,46.126 10.784,43.481 10.147,40.709L5.325,39.402C4.892,36.483 4.892,33.517 5.325,30.598L10.147,29.291C10.784,26.519 11.88,23.874 13.39,21.463L10.904,17.129C12.661,14.759 14.759,12.661 17.129,10.904L21.463,13.39C23.874,11.88 26.519,10.784 29.291,10.147L30.598,5.325C32.057,5.108 33.529,5 35,5Z" style="fill:rgb(29,229,233);"/>
    <g transform="matrix(0.933333,0,0,0.933333,4.33333,0.333333)">
        <path d="M35,5C36.471,5 37.943,5.108 39.402,5.325L40.709,10.147C43.481,10.784 46.126,11.88 48.537,13.39L52.871,10.904C55.241,12.661 57.339,14.759 59.096,17.129L56.61,21.463C58.12,23.874 59.216,26.519 59.853,29.291L64.675,30.598C64.892,32.057 65,33.529 65,35L55.261,35C55.261,23.226 46.774,14.739 35,14.739L35,5Z" style="fill:rgb(29,229,233);"/>
    </g>
</svg>
